{
    "key": "group_5804f2afa3247-2",
    "title": "Flexible Banners",
    "location": [
        [
            {
                "param": "page_template",
                "operator": "==",
                "value": "default"
            }
        ]
    ],
    "menu_order": 6,
    "position": "normal",
    "style": "default",
    "label_placement": "top",
    "instruction_placement": "label",
    "hide_on_screen": "",
    "active": 1,
    "description": "",
    "modified": 1523641544,
    "fields": [
        {
            "key": "field_5804f2afa7c61__trashed",
            "label": "Banners",
            "name": "flexible_banner_content",
            "type": "flexible_content",
            "instructions": "Set of banners that will appear before the main page content.",
            "required": 0,
            "conditional_logic": 0,
            "wrapper": {
                "width": "",
                "class": "",
                "id": ""
            },
            "button_label": "Add Banner Content",
            "min": 0,
            "max": "",
            "layouts": [
                {
                    "key": "57f559cbf6487",
                    "name": "flexible_banner_simple",
                    "label": "Simple Banner",
                    "display": "block",
                    "sub_fields": [
                        {
                            "key": "field_5804f2afaf3d8",
                            "label": "Header Text",
                            "name": "header_text",
                            "type": "text",
                            "instructions": "",
                            "required": 0,
                            "conditional_logic": 0,
                            "wrapper": {
                                "width": "",
                                "class": "",
                                "id": ""
                            },
                            "default_value": "",
                            "placeholder": "",
                            "prepend": "",
                            "append": "",
                            "maxlength": "",
                            "readonly": 0,
                            "disabled": 0
                        },
                        {
                            "key": "field_5804f2afaf3f4",
                            "label": "Main Copy",
                            "name": "main_copy",
                            "type": "textarea",
                            "instructions": "",
                            "required": 0,
                            "conditional_logic": 0,
                            "wrapper": {
                                "width": "",
                                "class": "",
                                "id": ""
                            },
                            "default_value": "",
                            "placeholder": "",
                            "maxlength": "",
                            "rows": 6,
                            "new_lines": "",
                            "readonly": 0,
                            "disabled": 0
                        },
                        {
                            "key": "field_5804f3508e949",
                            "label": "CTA Text",
                            "name": "cta_1_text",
                            "type": "text",
                            "instructions": "",
                            "required": 0,
                            "conditional_logic": 0,
                            "wrapper": {
                                "width": "",
                                "class": "",
                                "id": ""
                            },
                            "default_value": "",
                            "placeholder": "",
                            "prepend": "",
                            "append": "",
                            "maxlength": "",
                            "readonly": 0,
                            "disabled": 0
                        },
                        {
                            "key": "field_5804f3818e94a",
                            "label": "CTA Link",
                            "name": "cta_1_link",
                            "type": "text",
                            "instructions": "",
                            "required": 0,
                            "conditional_logic": 0,
                            "wrapper": {
                                "width": "",
                                "class": "",
                                "id": ""
                            },
                            "default_value": "",
                            "placeholder": "",
                            "prepend": "",
                            "append": "",
                            "maxlength": "",
                            "readonly": 0,
                            "disabled": 0
                        },
                        {
                            "key": "field_58234b7bd97a0",
                            "label": "Graphic",
                            "name": "graphic",
                            "type": "image",
                            "instructions": "",
                            "required": 0,
                            "conditional_logic": 0,
                            "wrapper": {
                                "width": "",
                                "class": "",
                                "id": ""
                            },
                            "return_format": "url",
                            "preview_size": "thumbnail",
                            "library": "all",
                            "min_width": "",
                            "min_height": "",
                            "min_size": "",
                            "max_width": "",
                            "max_height": "",
                            "max_size": "",
                            "mime_types": ""
                        },
                        {
                            "key": "field_5823508c021ca",
                            "label": "Light or Dark Text?",
                            "name": "light_or_dark_text",
                            "type": "radio",
                            "instructions": "Use light or dark text to contrast w\/ provided image?",
                            "required": 0,
                            "conditional_logic": 0,
                            "wrapper": {
                                "width": "",
                                "class": "",
                                "id": ""
                            },
                            "choices": {
                                "light": "Light",
                                "dark": "Dark"
                            },
                            "allow_null": 1,
                            "other_choice": 0,
                            "save_other_choice": 0,
                            "default_value": "light",
                            "layout": "vertical",
                            "return_format": "value"
                        }
                    ],
                    "min": "",
                    "max": ""
                },
                {
                    "key": "5806ad52799dc",
                    "name": "transparent_infographic_banner",
                    "label": "Transparent Infographic Banner",
                    "display": "block",
                    "sub_fields": [
                        {
                            "key": "field_5806ad52799dd",
                            "label": "Header Text",
                            "name": "header_text",
                            "type": "text",
                            "instructions": "",
                            "required": 0,
                            "conditional_logic": 0,
                            "wrapper": {
                                "width": "",
                                "class": "",
                                "id": ""
                            },
                            "default_value": "",
                            "placeholder": "",
                            "prepend": "",
                            "append": "",
                            "maxlength": "",
                            "readonly": 0,
                            "disabled": 0
                        },
                        {
                            "key": "field_5806ad52799de",
                            "label": "Main Copy",
                            "name": "main_copy",
                            "type": "textarea",
                            "instructions": "",
                            "required": 0,
                            "conditional_logic": 0,
                            "wrapper": {
                                "width": "",
                                "class": "",
                                "id": ""
                            },
                            "default_value": "",
                            "placeholder": "",
                            "maxlength": "",
                            "rows": 6,
                            "new_lines": "br",
                            "readonly": 0,
                            "disabled": 0
                        },
                        {
                            "key": "field_5806ad52799df",
                            "label": "CTA Text",
                            "name": "cta_1_text",
                            "type": "text",
                            "instructions": "",
                            "required": 0,
                            "conditional_logic": 0,
                            "wrapper": {
                                "width": "",
                                "class": "",
                                "id": ""
                            },
                            "default_value": "",
                            "placeholder": "",
                            "prepend": "",
                            "append": "",
                            "maxlength": "",
                            "readonly": 0,
                            "disabled": 0
                        },
                        {
                            "key": "field_5806ad52799e0",
                            "label": "CTA Link",
                            "name": "cta_1_link",
                            "type": "text",
                            "instructions": "",
                            "required": 0,
                            "conditional_logic": 0,
                            "wrapper": {
                                "width": "",
                                "class": "",
                                "id": ""
                            },
                            "default_value": "",
                            "placeholder": "",
                            "maxlength": "",
                            "prepend": "",
                            "append": "",
                            "readonly": 0,
                            "disabled": 0
                        },
                        {
                            "key": "field_5806ad52799e1",
                            "label": "CTA 2 Text",
                            "name": "cta_2_text",
                            "type": "text",
                            "instructions": "",
                            "required": 0,
                            "conditional_logic": 0,
                            "wrapper": {
                                "width": "",
                                "class": "",
                                "id": ""
                            },
                            "default_value": "",
                            "placeholder": "",
                            "prepend": "",
                            "append": "",
                            "maxlength": "",
                            "readonly": 0,
                            "disabled": 0
                        },
                        {
                            "key": "field_5806ad52799e2",
                            "label": "CTA 2 Link",
                            "name": "cta_2_link",
                            "type": "text",
                            "instructions": "",
                            "required": 0,
                            "conditional_logic": 0,
                            "wrapper": {
                                "width": "",
                                "class": "",
                                "id": ""
                            },
                            "default_value": "",
                            "placeholder": "",
                            "maxlength": "",
                            "prepend": "",
                            "append": "",
                            "readonly": 0,
                            "disabled": 0
                        },
                        {
                            "key": "field_5806ad52799e3",
                            "label": "Graphic",
                            "name": "graphic",
                            "type": "image",
                            "instructions": "Choose an image of at least 700px (width) by 380px (height) and a proportional ratio (35:19).",
                            "required": 1,
                            "conditional_logic": 0,
                            "wrapper": {
                                "width": "",
                                "class": "",
                                "id": ""
                            },
                            "return_format": "url",
                            "preview_size": "thumbnail",
                            "library": "all",
                            "min_width": 700,
                            "min_height": 380,
                            "min_size": "",
                            "max_width": "",
                            "max_height": "",
                            "max_size": "",
                            "mime_types": ""
                        }
                    ],
                    "min": "",
                    "max": ""
                },
                {
                    "key": "58051caf5e0ec",
                    "name": "flexible_banner_split_equal_content",
                    "label": "Split Content Banner (Image Left)",
                    "display": "block",
                    "sub_fields": [
                        {
                            "key": "field_58051caf5e0ed",
                            "label": "Header Text",
                            "name": "header_text",
                            "type": "text",
                            "instructions": "",
                            "required": "",
                            "conditional_logic": "",
                            "wrapper": {
                                "width": "",
                                "class": "",
                                "id": ""
                            },
                            "default_value": "",
                            "placeholder": "",
                            "prepend": "",
                            "append": "",
                            "maxlength": "",
                            "readonly": 0,
                            "disabled": 0
                        },
                        {
                            "key": "field_58051e719be9f",
                            "label": "Sub-headline",
                            "name": "header_subtext",
                            "type": "text",
                            "instructions": "Copy appears in smaller colored letters above the \"Header Text\" field",
                            "required": 0,
                            "conditional_logic": 0,
                            "wrapper": {
                                "width": "",
                                "class": "",
                                "id": ""
                            },
                            "default_value": "",
                            "placeholder": "",
                            "prepend": "",
                            "append": "",
                            "maxlength": "",
                            "readonly": 0,
                            "disabled": 0
                        },
                        {
                            "key": "field_58051caf5e0ee",
                            "label": "Main Copy",
                            "name": "main_copy",
                            "type": "textarea",
                            "instructions": "",
                            "required": "",
                            "conditional_logic": "",
                            "wrapper": {
                                "width": "",
                                "class": "",
                                "id": ""
                            },
                            "default_value": "",
                            "placeholder": "",
                            "maxlength": "",
                            "rows": 6,
                            "new_lines": "br",
                            "readonly": 0,
                            "disabled": 0
                        },
                        {
                            "key": "field_58051caf5e0ef",
                            "label": "CTA Text",
                            "name": "cta_1_text",
                            "type": "text",
                            "instructions": "",
                            "required": "",
                            "conditional_logic": "",
                            "wrapper": {
                                "width": "",
                                "class": "",
                                "id": ""
                            },
                            "default_value": "",
                            "placeholder": "",
                            "prepend": "",
                            "append": "",
                            "maxlength": "",
                            "readonly": 0,
                            "disabled": 0
                        },
                        {
                            "key": "field_58051caf5e0f0",
                            "label": "CTA Link",
                            "name": "cta_1_link",
                            "type": "text",
                            "instructions": "",
                            "required": "",
                            "conditional_logic": "",
                            "wrapper": {
                                "width": "",
                                "class": "",
                                "id": ""
                            },
                            "default_value": "",
                            "placeholder": "",
                            "maxlength": "",
                            "prepend": "",
                            "append": "",
                            "readonly": 0,
                            "disabled": 0
                        },
                        {
                            "key": "field_58051caf5e0f3",
                            "label": "Graphic",
                            "name": "graphic",
                            "type": "image",
                            "instructions": "Try to use a square image with a width\/height of at least 600px.",
                            "required": 1,
                            "conditional_logic": 0,
                            "wrapper": {
                                "width": "",
                                "class": "",
                                "id": ""
                            },
                            "return_format": "url",
                            "preview_size": "thumbnail",
                            "library": "all",
                            "min_width": "",
                            "min_height": "",
                            "min_size": "",
                            "max_width": "",
                            "max_height": "",
                            "max_size": "",
                            "mime_types": ""
                        }
                    ],
                    "min": "",
                    "max": ""
                },
                {
                    "key": "58052b8298067",
                    "name": "flexible_banner_split_equal_content_img_last",
                    "label": "Split Equal Content Banner (Image Right)",
                    "display": "block",
                    "sub_fields": [
                        {
                            "key": "field_58052b8298068",
                            "label": "Header Text",
                            "name": "header_text",
                            "type": "text",
                            "instructions": "",
                            "required": 0,
                            "conditional_logic": 0,
                            "wrapper": {
                                "width": "",
                                "class": "",
                                "id": ""
                            },
                            "default_value": "",
                            "placeholder": "",
                            "prepend": "",
                            "append": "",
                            "maxlength": "",
                            "readonly": 0,
                            "disabled": 0
                        },
                        {
                            "key": "field_58052b8298069",
                            "label": "Sub-headline",
                            "name": "header_subtext",
                            "type": "text",
                            "instructions": "Copy appears in smaller colored letters above the \"Header Text\" field",
                            "required": 0,
                            "conditional_logic": 0,
                            "wrapper": {
                                "width": "",
                                "class": "",
                                "id": ""
                            },
                            "default_value": "",
                            "placeholder": "",
                            "prepend": "",
                            "append": "",
                            "maxlength": "",
                            "readonly": 0,
                            "disabled": 0
                        },
                        {
                            "key": "field_58052b829806a",
                            "label": "Main Copy",
                            "name": "main_copy",
                            "type": "textarea",
                            "instructions": "",
                            "required": 0,
                            "conditional_logic": 0,
                            "wrapper": {
                                "width": "",
                                "class": "",
                                "id": ""
                            },
                            "default_value": "",
                            "placeholder": "",
                            "maxlength": "",
                            "rows": 6,
                            "new_lines": "br",
                            "readonly": 0,
                            "disabled": 0
                        },
                        {
                            "key": "field_58052b829806b",
                            "label": "CTA Text",
                            "name": "cta_1_text",
                            "type": "text",
                            "instructions": "",
                            "required": 0,
                            "conditional_logic": 0,
                            "wrapper": {
                                "width": "",
                                "class": "",
                                "id": ""
                            },
                            "default_value": "",
                            "placeholder": "",
                            "prepend": "",
                            "append": "",
                            "maxlength": "",
                            "readonly": 0,
                            "disabled": 0
                        },
                        {
                            "key": "field_58052b829806c",
                            "label": "CTA Link",
                            "name": "cta_1_link",
                            "type": "text",
                            "instructions": "",
                            "required": 0,
                            "conditional_logic": 0,
                            "wrapper": {
                                "width": "",
                                "class": "",
                                "id": ""
                            },
                            "default_value": "",
                            "placeholder": "",
                            "maxlength": "",
                            "prepend": "",
                            "append": "",
                            "readonly": 0,
                            "disabled": 0
                        },
                        {
                            "key": "field_58052b829806d",
                            "label": "Graphic",
                            "name": "graphic",
                            "type": "image",
                            "instructions": "Try to use a square image with a width\/height of at least 600px.",
                            "required": 1,
                            "conditional_logic": 0,
                            "wrapper": {
                                "width": "",
                                "class": "",
                                "id": ""
                            },
                            "return_format": "url",
                            "preview_size": "thumbnail",
                            "library": "all",
                            "min_width": "",
                            "min_height": "",
                            "min_size": "",
                            "max_width": "",
                            "max_height": "",
                            "max_size": "",
                            "mime_types": ""
                        },
                        {
                            "key": "field_58053151599b9",
                            "label": "Posts List",
                            "name": "posts_list",
                            "type": "post_object",
                            "instructions": "",
                            "required": 0,
                            "conditional_logic": 0,
                            "wrapper": {
                                "width": "",
                                "class": "hidden hidden-posts-list",
                                "id": ""
                            },
                            "post_type": [],
                            "taxonomy": [],
                            "allow_null": 0,
                            "multiple": 1,
                            "return_format": "id",
                            "ui": 1
                        }
                    ],
                    "min": "",
                    "max": ""
                }
            ]
        }
    ]
}