{
    "key": "group_57fc03f62d7c4",
    "title": "Location Fields",
    "location": [
        [
            {
                "param": "post_type",
                "operator": "==",
                "value": "location"
            }
        ]
    ],
    "menu_order": 0,
    "position": "acf_after_title",
    "style": "default",
    "label_placement": "top",
    "instruction_placement": "label",
    "hide_on_screen": [
        "excerpt",
        "custom_fields",
        "discussion",
        "comments",
        "author",
        "categories",
        "send-trackbacks"
    ],
    "active": 1,
    "description": "",
    "fields": [
        {
            "key": "field_57fc04a167d77",
            "label": "Full Address",
            "name": "location_full_address",
            "type": "text",
            "instructions": "The full address of this location.",
            "required": 1,
            "conditional_logic": 0,
            "wrapper": {
                "width": "",
                "class": "acf-geo-address",
                "id": "location-acf-geo-address"
            },
            "default_value": "",
            "placeholder": "123 Imaginary St",
            "prepend": "",
            "append": "",
            "maxlength": ""
        },
        {
            "key": "field_5825ebf4c35de",
            "label": "Latitude Geo-Location",
            "name": "geolocation_latitude",
            "type": "number",
            "instructions": "",
            "required": 0,
            "conditional_logic": 0,
            "wrapper": {
                "width": "",
                "class": "acf-geo-latitude",
                "id": "location-acf-geo-latitude"
            },
            "default_value": "",
            "min": "",
            "max": "",
            "step": "0.00000000000000001",
            "placeholder": "",
            "prepend": "",
            "append": ""
        },
        {
            "key": "field_5825ec82c07a2",
            "label": "Geo-Location Longitude",
            "name": "geolocation_longitude",
            "type": "number",
            "instructions": "",
            "required": 0,
            "conditional_logic": 0,
            "wrapper": {
                "width": "",
                "class": "acf-geo-longitude",
                "id": "location-acf-geo-longitude"
            },
            "default_value": "",
            "min": "",
            "max": "",
            "step": "0.00000000000000001",
            "placeholder": "",
            "prepend": "",
            "append": ""
        },
        {
            "key": "field_57fc056aef627",
            "label": "Phone",
            "name": "location_phone_number",
            "type": "text",
            "instructions": "",
            "required": 0,
            "conditional_logic": 0,
            "wrapper": {
                "width": "",
                "class": "",
                "id": ""
            },
            "default_value": "",
            "placeholder": "(555) 123-4556",
            "prepend": "Phone:",
            "append": "",
            "maxlength": ""
        },
        {
            "key": "field_5acbe2e1cbb49",
            "label": "Fax",
            "name": "location_fax_number",
            "type": "text",
            "instructions": "",
            "required": 0,
            "conditional_logic": 0,
            "wrapper": {
                "width": "",
                "class": "",
                "id": ""
            },
            "default_value": "",
            "placeholder": "(555) 123-4556",
            "prepend": "Fax:",
            "append": "",
            "maxlength": ""
        },
        {
            "key": "field_5acbe330cbb4a",
            "label": "Email Address",
            "name": "location_email",
            "type": "email",
            "instructions": "",
            "required": 0,
            "conditional_logic": 0,
            "wrapper": {
                "width": "",
                "class": "",
                "id": ""
            },
            "default_value": "",
            "placeholder": "",
            "prepend": "",
            "append": ""
        },
        {
            "key": "field_5acbe389cbb4b",
            "label": "Downloads & Resources",
            "name": "location_resources",
            "type": "repeater",
            "instructions": "<strong>Some Common Resouces To Provide Would Be:<\/strong>\r\n - Phone Guide\r\n - Direct Dial Phone Directory\r\n - Office Seating Chart\r\n - Tech Resources & Meeting Spaces Maps",
            "required": 0,
            "conditional_logic": 0,
            "wrapper": {
                "width": "",
                "class": "",
                "id": ""
            },
            "collapsed": "field_5acbe8f1cbb53",
            "min": 0,
            "max": 0,
            "layout": "row",
            "button_label": "Add Resource",
            "sub_fields": [
                {
                    "key": "field_5acbe8f1cbb53",
                    "label": "Resource Name",
                    "name": "resource_name",
                    "type": "text",
                    "instructions": "Name this download\/resource.",
                    "required": 1,
                    "conditional_logic": 0,
                    "wrapper": {
                        "width": "",
                        "class": "",
                        "id": ""
                    },
                    "default_value": "",
                    "placeholder": "",
                    "prepend": "",
                    "append": "",
                    "maxlength": ""
                },
                {
                    "key": "field_5acbe863cbb52",
                    "label": "Resource Type",
                    "name": "resource_type",
                    "type": "radio",
                    "instructions": "Is this a downloadable file (e.g. a PDF) or an external\/internal link?",
                    "required": 0,
                    "conditional_logic": 0,
                    "wrapper": {
                        "width": "",
                        "class": "",
                        "id": ""
                    },
                    "choices": {
                        "resource_download": "File\/Download (PDF)",
                        "resource_link": "Link\/URL"
                    },
                    "allow_null": 0,
                    "other_choice": 0,
                    "save_other_choice": 0,
                    "default_value": "",
                    "layout": "",
                    "return_format": ""
                },
                {
                    "key": "field_5acbe708cbb51",
                    "label": "File or Resource Download",
                    "name": "file_download",
                    "type": "file",
                    "instructions": "Choose a PDF or other downloadable resource.",
                    "required": 0,
                    "conditional_logic": [
                        [
                            {
                                "field": "field_5acbe863cbb52",
                                "operator": "==",
                                "value": "file-download"
                            }
                        ]
                    ],
                    "wrapper": {
                        "width": "",
                        "class": "",
                        "id": ""
                    },
                    "return_format": "url",
                    "library": "all",
                    "min_size": "",
                    "max_size": "",
                    "mime_types": ""
                },
                {
                    "key": "field_5acbe92bcbb54",
                    "label": "Resource Link",
                    "name": "resource_link",
                    "type": "url",
                    "instructions": "Choose a PDF or other downloadable resource.",
                    "required": 0,
                    "conditional_logic": [
                        [
                            {
                                "field": "field_5acbe863cbb52",
                                "operator": "!=",
                                "value": "resource_download"
                            }
                        ]
                    ],
                    "wrapper": {
                        "width": "",
                        "class": "",
                        "id": ""
                    },
                    "default_value": "",
                    "placeholder": "http:\/\/"
                }
            ]
        }
    ],
    "modified": 1523641542
}